module bitbucket.org/olympiaschooldistrict/misc

go 1.18

require (
	cloud.google.com/go/compute/metadata v0.3.0
	cloud.google.com/go/logging v1.10.0
	cloud.google.com/go/secretmanager v1.13.1
	github.com/joho/godotenv v1.5.1
	github.com/urfave/cli/v2 v2.27.3
	google.golang.org/genproto/googleapis/api v0.0.0-20240604185151-ef581f913117
)

require (
	cloud.google.com/go v0.113.0 // indirect
	cloud.google.com/go/auth v0.4.1 // indirect
	cloud.google.com/go/auth/oauth2adapt v0.2.2 // indirect
	cloud.google.com/go/iam v1.1.8 // indirect
	cloud.google.com/go/longrunning v0.5.7 // indirect
	github.com/cpuguy83/go-md2man/v2 v2.0.4 // indirect
	github.com/felixge/httpsnoop v1.0.4 // indirect
	github.com/go-logr/logr v1.4.1 // indirect
	github.com/go-logr/stdr v1.2.2 // indirect
	github.com/golang/groupcache v0.0.0-20210331224755-41bb18bfe9da // indirect
	github.com/golang/protobuf v1.5.4 // indirect
	github.com/google/s2a-go v0.1.7 // indirect
	github.com/googleapis/enterprise-certificate-proxy v0.3.2 // indirect
	github.com/googleapis/gax-go/v2 v2.12.4 // indirect
	github.com/russross/blackfriday/v2 v2.1.0 // indirect
	github.com/xrash/smetrics v0.0.0-20240521201337-686a1a2994c1 // indirect
	go.opencensus.io v0.24.0 // indirect
	go.opentelemetry.io/contrib/instrumentation/google.golang.org/grpc/otelgrpc v0.49.0 // indirect
	go.opentelemetry.io/contrib/instrumentation/net/http/otelhttp v0.49.0 // indirect
	go.opentelemetry.io/otel v1.24.0 // indirect
	go.opentelemetry.io/otel/metric v1.24.0 // indirect
	go.opentelemetry.io/otel/trace v1.24.0 // indirect
	golang.org/x/crypto v0.23.0 // indirect
	golang.org/x/net v0.25.0 // indirect
	golang.org/x/oauth2 v0.20.0 // indirect
	golang.org/x/sync v0.7.0 // indirect
	golang.org/x/sys v0.20.0 // indirect
	golang.org/x/text v0.15.0 // indirect
	golang.org/x/time v0.5.0 // indirect
	google.golang.org/api v0.180.0 // indirect
	google.golang.org/genproto v0.0.0-20240401170217-c3f982113cda // indirect
	google.golang.org/genproto/googleapis/rpc v0.0.0-20240528184218-531527333157 // indirect
	google.golang.org/grpc v1.64.0 // indirect
	google.golang.org/protobuf v1.34.1 // indirect
)
